<?xml version="1.0" encoding="utf-8"?>
<!-- Generator: Adobe Illustrator 14.0.0, SVG Export Plug-In . SVG Version: 6.00 Build 43363)  -->
<!DOCTYPE svg PUBLIC "-//W3C//DTD SVG 1.1//EN" "http://www.w3.org/Graphics/SVG/1.1/DTD/svg11.dtd">
<svg version="1.1" id="Layer_1" xmlns="http://www.w3.org/2000/svg" xmlns:xlink="http://www.w3.org/1999/xlink" x="0px" y="0px"
     width="32px" height="32px" viewBox="0 0 32 32" enable-background="new 0 0 32 32" xml:space="preserve">
<g id="XMLID_28_">
	<g>
		<path fill="#FF0185" d="M30,16.001c0,3.493-2.831,6.321-6.322,6.321c-3.492,0-6.323-2.828-6.323-6.321
			c0-3.494,2.831-6.323,6.323-6.323C27.169,9.678,30,12.507,30,16.001z"/>
		<path fill="#236DD7" d="M14.646,16.001c0,3.493-2.833,6.321-6.324,6.321C4.829,22.322,2,19.494,2,16.001
			c0-3.495,2.829-6.324,6.321-6.324C11.813,9.677,14.646,12.507,14.646,16.001z"/>
	</g>
</g>
</svg>
